V_primo_elab/Gen_int.vcd
$version Generated by VerilatedVcd $end
$timescale 1ps $end
 $scope module TOP $end
  $scope module tb_gen_int $end
   $var wire 2 # Sel [1:0] $end
   $var wire 3 $ QTY_P1 [2:0] $end
   $var wire 3 % QTY_P2 [2:0] $end
   $var wire 3 & QTY_P3 [2:0] $end
   $var wire 3 ' QTY_P4 [2:0] $end
   $var wire 3 ( PRICE_P1 [2:0] $end
   $var wire 3 ) PRICE_P2 [2:0] $end
   $var wire 3 * PRICE_P3 [2:0] $end
   $var wire 3 + PRICE_P4 [2:0] $end
   $var wire 3 , CREDITO [2:0] $end
   $var wire 1 J i $end
   $var wire 32 - s [31:0] $end
   $var wire 32 . c [31:0] $end
   $scope module uut $end
    $var wire 2 # Sel [1:0] $end
    $var wire 3 $ QTY_P1 [2:0] $end
    $var wire 3 % QTY_P2 [2:0] $end
    $var wire 3 & QTY_P3 [2:0] $end
    $var wire 3 ' QTY_P4 [2:0] $end
    $var wire 3 ( PRICE_P1 [2:0] $end
    $var wire 3 ) PRICE_P2 [2:0] $end
    $var wire 3 * PRICE_P3 [2:0] $end
    $var wire 3 + PRICE_P4 [2:0] $end
    $var wire 3 , CREDITO [2:0] $end
    $var wire 1 J i $end
    $var wire 3 F mm1 [2:0] $end
    $var wire 3 < mm2 [2:0] $end
    $var wire 1 = uu1 $end
    $var wire 1 > nn1 $end
    $var wire 1 2 nn2 $end
    $var wire 1 3 cp1 $end
    $var wire 1 O aa1 $end
    $scope module A1 $end
     $var wire 32 P N [31:0] $end
     $var wire 1 > A [0:0] $end
     $var wire 1 2 B [0:0] $end
     $var wire 1 J O [0:0] $end
     $var wire 32 Q i [31:0] $end
    $upscope $end
    $scope module M1 $end
     $var wire 32 R N [31:0] $end
     $var wire 2 # S [1:0] $end
     $var wire 3 + A3 [2:0] $end
     $var wire 3 * A2 [2:0] $end
     $var wire 3 ) A1 [2:0] $end
     $var wire 3 ( A0 [2:0] $end
     $var wire 3 F O [2:0] $end
    $upscope $end
    $scope module M2 $end
     $var wire 32 R N [31:0] $end
     $var wire 2 # S [1:0] $end
     $var wire 3 ' A3 [2:0] $end
     $var wire 3 & A2 [2:0] $end
     $var wire 3 % A1 [2:0] $end
     $var wire 3 $ A0 [2:0] $end
     $var wire 3 < O [2:0] $end
    $upscope $end
    $scope module N1 $end
     $var wire 32 P N [31:0] $end
     $var wire 1 = A [0:0] $end
     $var wire 1 > O [0:0] $end
     $var wire 32 Q i [31:0] $end
    $upscope $end
    $scope module N2 $end
     $var wire 32 P N [31:0] $end
     $var wire 1 3 A [0:0] $end
     $var wire 1 2 O [0:0] $end
     $var wire 32 Q i [31:0] $end
    $upscope $end
    $scope module U1 $end
     $var wire 1 ? A $end
     $var wire 1 @ B $end
     $var wire 1 A C $end
     $var wire 1 = O $end
     $var wire 1 B o2 $end
     $var wire 1 C o1 $end
     $var wire 1 D o0 $end
     $var wire 1 E aa1 $end
     $var wire 1 S ug $end
     $scope module a0 $end
      $var wire 32 P N [31:0] $end
      $var wire 1 E A [0:0] $end
      $var wire 1 D B [0:0] $end
      $var wire 1 = O [0:0] $end
      $var wire 32 Q i [31:0] $end
     $upscope $end
     $scope module a1 $end
      $var wire 32 P N [31:0] $end
      $var wire 1 B A [0:0] $end
      $var wire 1 C B [0:0] $end
      $var wire 1 E O [0:0] $end
      $var wire 32 Q i [31:0] $end
     $upscope $end
     $scope module x0 $end
      $var wire 1 A A $end
      $var wire 1 S B $end
      $var wire 1 D O $end
     $upscope $end
     $scope module x1 $end
      $var wire 1 @ A $end
      $var wire 1 S B $end
      $var wire 1 C O $end
     $upscope $end
     $scope module x2 $end
      $var wire 1 ? A $end
      $var wire 1 S B $end
      $var wire 1 B O $end
     $upscope $end
    $upscope $end
    $scope module minoranza $end
     $var wire 3 , str1 [2:0] $end
     $var wire 3 F str2 [2:0] $end
     $var wire 1 3 O $end
     $var wire 1 K nn1 $end
     $var wire 1 4 xx1 $end
     $var wire 1 5 aa1 $end
     $var wire 1 L nn2 $end
     $var wire 1 M xx2 $end
     $var wire 1 6 aa2 $end
     $var wire 1 N nn3 $end
     $var wire 1 7 aa3 $end
     $var wire 1 8 aa4 $end
     $var wire 1 9 aa5 $end
     $var wire 1 : oo1 $end
     $var wire 1 ; aa6 $end
     $scope module A1 $end
      $var wire 32 P N [31:0] $end
      $var wire 1 K A [0:0] $end
      $var wire 1 G B [0:0] $end
      $var wire 1 5 O [0:0] $end
      $var wire 32 Q i [31:0] $end
     $upscope $end
     $scope module A2 $end
      $var wire 32 P N [31:0] $end
      $var wire 1 L A [0:0] $end
      $var wire 1 H B [0:0] $end
      $var wire 1 6 O [0:0] $end
      $var wire 32 Q i [31:0] $end
     $upscope $end
     $scope module A3 $end
      $var wire 32 P N [31:0] $end
      $var wire 1 N A [0:0] $end
      $var wire 1 I B [0:0] $end
      $var wire 1 7 O [0:0] $end
      $var wire 32 Q i [31:0] $end
     $upscope $end
     $scope module A4 $end
      $var wire 32 P N [31:0] $end
      $var wire 1 4 A [0:0] $end
      $var wire 1 6 B [0:0] $end
      $var wire 1 8 O [0:0] $end
      $var wire 32 Q i [31:0] $end
     $upscope $end
     $scope module A5 $end
      $var wire 32 P N [31:0] $end
      $var wire 1 4 A [0:0] $end
      $var wire 1 M B [0:0] $end
      $var wire 1 9 O [0:0] $end
      $var wire 32 Q i [31:0] $end
     $upscope $end
     $scope module A6 $end
      $var wire 32 P N [31:0] $end
      $var wire 1 9 A [0:0] $end
      $var wire 1 7 B [0:0] $end
      $var wire 1 ; O [0:0] $end
      $var wire 32 Q i [31:0] $end
     $upscope $end
     $scope module N1 $end
      $var wire 32 P N [31:0] $end
      $var wire 1 / A [0:0] $end
      $var wire 1 K O [0:0] $end
      $var wire 32 Q i [31:0] $end
     $upscope $end
     $scope module N2 $end
      $var wire 32 P N [31:0] $end
      $var wire 1 0 A [0:0] $end
      $var wire 1 L O [0:0] $end
      $var wire 32 Q i [31:0] $end
     $upscope $end
     $scope module N3 $end
      $var wire 32 P N [31:0] $end
      $var wire 1 1 A [0:0] $end
      $var wire 1 N O [0:0] $end
      $var wire 32 Q i [31:0] $end
     $upscope $end
     $scope module O1 $end
      $var wire 1 5 A $end
      $var wire 1 8 B $end
      $var wire 1 : O $end
     $upscope $end
     $scope module O2 $end
      $var wire 1 : A $end
      $var wire 1 ; B $end
      $var wire 1 3 O $end
     $upscope $end
     $scope module X1 $end
      $var wire 1 / A $end
      $var wire 1 G B $end
      $var wire 1 4 O $end
     $upscope $end
     $scope module X2 $end
      $var wire 1 0 A $end
      $var wire 1 H B $end
      $var wire 1 M O $end
     $upscope $end
    $upscope $end
   $upscope $end
  $upscope $end
 $upscope $end
$enddefinitions $end


#0
b00 #
b001 $
b010 %
b011 &
b100 '
b001 (
b010 )
b011 *
b101 +
b000 ,
b00000000000000000000000000000000 -
b00000000000000000000000000000000 .
0/
00
01
02
13
14
05
06
17
08
19
0:
1;
b001 <
0=
1>
0?
0@
1A
1B
1C
0D
1E
b001 F
0G
0H
1I
0J
1K
1L
1M
1N
0O
b00000000000000000000000000000001 P
b00000000000000000000000000000001 Q
b00000000000000000000000000000011 R
0S
#10
b001 ,
b00000000000000000000000000000001 .
11
12
03
07
0;
1J
0N
#20
b010 ,
b00000000000000000000000000000010 .
10
01
17
09
0L
0M
1N
#30
b011 ,
b00000000000000000000000000000011 .
11
07
0N
#40
b100 ,
b00000000000000000000000000000100 .
1/
00
01
04
17
0K
1L
1M
1N
#50
b101 ,
b00000000000000000000000000000101 .
11
07
0N
#60
b110 ,
b00000000000000000000000000000110 .
10
01
17
0L
0M
1N
#70
b111 ,
b00000000000000000000000000000111 .
11
07
0N
#80
b01 #
b000 ,
b00000000000000000000000000000001 -
b00000000000000000000000000001000 .
0/
00
01
02
13
14
16
18
1:
b010 <
1@
0A
0C
1D
0E
b010 F
1H
0I
0J
1K
1L
1N
#90
b001 ,
b00000000000000000000000000000001 .
11
0N
#100
b010 ,
b00000000000000000000000000000010 .
10
01
12
03
06
08
19
0:
1J
0L
1M
1N
#110
b011 ,
b00000000000000000000000000000011 .
11
0N
#120
b100 ,
b00000000000000000000000000000100 .
1/
00
01
04
16
09
0K
1L
0M
1N
#130
b101 ,
b00000000000000000000000000000101 .
11
0N
#140
b110 ,
b00000000000000000000000000000110 .
10
01
06
0L
1M
1N
#150
b111 ,
b00000000000000000000000000000111 .
11
0N
#160
b10 #
b000 ,
b00000000000000000000000000000010 -
b00000000000000000000000000001000 .
0/
00
01
02
13
14
16
17
18
1:
b011 <
1A
0D
b011 F
1I
0J
1K
1L
0M
1N
#170
b001 ,
b00000000000000000000000000000001 .
11
07
0N
#180
b010 ,
b00000000000000000000000000000010 .
10
01
06
17
08
19
0:
1;
0L
1M
1N
#190
b011 ,
b00000000000000000000000000000011 .
11
12
03
07
0;
1J
0N
#200
b100 ,
b00000000000000000000000000000100 .
1/
00
01
04
16
17
09
0K
1L
0M
1N
#210
b101 ,
b00000000000000000000000000000101 .
11
07
0N
#220
b110 ,
b00000000000000000000000000000110 .
10
01
06
17
0L
1M
1N
#230
b111 ,
b00000000000000000000000000000111 .
11
07
0N
#240
b11 #
b000 ,
b00000000000000000000000000000011 -
b00000000000000000000000000001000 .
0/
00
01
02
13
15
17
1:
b100 <
1?
0@
0A
0B
1C
1D
b101 F
1G
0H
0J
1K
1L
1N
#250
b001 ,
b00000000000000000000000000000001 .
11
07
0N
#260
b010 ,
b00000000000000000000000000000010 .
10
01
17
0L
0M
1N
#270
b011 ,
b00000000000000000000000000000011 .
11
07
0N
#280
b100 ,
b00000000000000000000000000000100 .
1/
00
01
14
05
17
19
0:
1;
0K
1L
1M
1N
#290
b101 ,
b00000000000000000000000000000101 .
11
12
03
07
0;
1J
0N
#300
b110 ,
b00000000000000000000000000000110 .
10
01
17
09
0L
0M
1N
#310
b111 ,
b00000000000000000000000000000111 .
11
07
0N
#320
b00000000000000000000000000000100 -
b00000000000000000000000000001000 .
